{"name":"Qure mini Light", "description":"Qure mini Light 是 Qure 项目下的浅色图标集", "icons":[
{"name":"5iTV", "url":"https://raw.githubusercontent.com/Koolson/Qure/IconSet/5iTV.png"},
{"name":"AIA", "url":"https://raw.githubusercontent.com/Koolson/Qure/IconSet/AIA.png"},
{"name":"AIA_Letter", "url":"https://raw.githubusercontent.com/Koolson/Qure/IconSet/AIA_Letter.png"},
{"name":"ARK", "url":"https://raw.githubusercontent.com/Koolson/Qure/IconSet/ARK.png"},
{"name":"AWS", "url":"https://raw.githubusercontent.com/Koolson/Qure/IconSet/AWS.png"},
{"name":"AbemaTV", "url":"https://raw.githubusercontent.com/Koolson/Qure/IconSet/AbemaTV.png"},
{"name":"AbemaTV_Letter", "url":"https://raw.githubusercontent.com/Koolson/Qure/IconSet/AbemaTV_Letter.png"},
{"name":"AdBlack", "url":"https://raw.githubusercontent.com/Koolson/Qure/IconSet/AdBlack.png"},
{"name":"AdWhite", "url":"https://raw.githubusercontent.com/Koolson/Qure/IconSet/AdWhite.png"},
{"name":"Advertising", "url":"https://raw.githubusercontent.com/Koolson/Qure/IconSet/Advertising.png"},
{"name":"Airport", "url":"https://raw.githubusercontent.com/Koolson/Qure/IconSet/Airport.png"},
{"name":"Alibaba", "url":"https://raw.githubusercontent.com/Koolson/Qure/IconSet/Alibaba.png"},
{"name":"Alibaba_Cloud", "url":"https://raw.githubusercontent.com/Koolson/Qure/IconSet/Alibaba_Cloud.png"},
{"name":"All4", "url":"https://raw.githubusercontent.com/Koolson/Qure/IconSet/All4.png"},
{"name":"AmyTelecom", "url":"https://raw.githubusercontent.com/Koolson/Qure/IconSet/AmyTelecom.png"},
{"name":"AmyTelecom_1", "url":"https://raw.githubusercontent.com/Koolson/Qure/IconSet/AmyTelecom_1.png"},
{"name":"Apol", "url":"https://raw.githubusercontent.com/Koolson/Qure/IconSet/Apol.png"},
{"name":"App_Store", "url":"https://raw.githubusercontent.com/Koolson/Qure/IconSet/App_Store.png"},
{"name":"Apple", "url":"https://raw.githubusercontent.com/Koolson/Qure/IconSet/Apple.png"},
{"name":"Apple_Fitness+", "url":"https://raw.githubusercontent.com/Koolson/Qure/IconSet/Apple_Fitness+.png"},
{"name":"Apple_Fitness", "url":"https://raw.githubusercontent.com/Koolson/Qure/IconSet/Apple_Fitness.png"},
{"name":"Apple_Mail", "url":"https://raw.githubusercontent.com/Koolson/Qure/IconSet/Apple_Mail.png"},
{"name":"Apple_Music", "url":"https://raw.githubusercontent.com/Koolson/Qure/IconSet/Apple_Music.png"},
{"name":"Apple_News", "url":"https://raw.githubusercontent.com/Koolson/Qure/IconSet/Apple_News.png"},
{"name":"Apple_TV", "url":"https://raw.githubusercontent.com/Koolson/Qure/IconSet/Apple_TV.png"},
{"name":"Apple_TV_Plus", "url":"https://raw.githubusercontent.com/Koolson/Qure/IconSet/Apple_TV_Plus.png"},
{"name":"Apple_Update", "url":"https://raw.githubusercontent.com/Koolson/Qure/IconSet/Apple_Update.png"},
{"name":"Area", "url":"https://raw.githubusercontent.com/Koolson/Qure/IconSet/Area.png"},
{"name":"Auto", "url":"https://raw.githubusercontent.com/Koolson/Qure/IconSet/Auto.png"},
{"name":"Available", "url":"https://raw.githubusercontent.com/Koolson/Qure/IconSet/Available.png"},
{"name":"Available_Alt", "url":"https://raw.githubusercontent.com/Koolson/Qure/IconSet/Available_Alt.png"},
{"name":"Azure", "url":"https://raw.githubusercontent.com/Koolson/Qure/IconSet/Azure.png"},
{"name":"BBC_iPlayer", "url":"https://raw.githubusercontent.com/Koolson/Qure/IconSet/BBC_iPlayer.png"},
{"name":"BBTEC", "url":"https://raw.githubusercontent.com/Koolson/Qure/IconSet/BBTEC.png"},
{"name":"BGP", "url":"https://raw.githubusercontent.com/Koolson/Qure/IconSet/BGP.png"},
{"name":"Back", "url":"https://raw.githubusercontent.com/Koolson/Qure/IconSet/Back.png"},
{"name":"Bahamut", "url":"https://raw.githubusercontent.com/Koolson/Qure/IconSet/Bahamut.png"},
{"name":"Baidu_Cloud", "url":"https://raw.githubusercontent.com/Koolson/Qure/IconSet/Baidu_Cloud.png"},
{"name":"Bamboo", "url":"https://raw.githubusercontent.com/Koolson/Qure/IconSet/Bamboo.png"},
{"name":"Blackhole", "url":"https://raw.githubusercontent.com/Koolson/Qure/IconSet/Blackhole.png"},
{"name":"Blinkload", "url":"https://raw.githubusercontent.com/Koolson/Qure/IconSet/Blinkload.png"},
{"name":"Blinkload_B", "url":"https://raw.githubusercontent.com/Koolson/Qure/IconSet/Blinkload_B.png"},
{"name":"Blinkload_SS", "url":"https://raw.githubusercontent.com/Koolson/Qure/IconSet/Blinkload_SS.png"},
{"name":"Blinkload_V2Ray", "url":"https://raw.githubusercontent.com/Koolson/Qure/IconSet/Blinkload_V2Ray.png"},
{"name":"Bookpedia", "url":"https://raw.githubusercontent.com/Koolson/Qure/IconSet/Bookpedia.png"},
{"name":"BosLife", "url":"https://raw.githubusercontent.com/Koolson/Qure/IconSet/BosLife.png"},
{"name":"BosLife_1", "url":"https://raw.githubusercontent.com/Koolson/Qure/IconSet/BosLife_1.png"},
{"name":"BosLife_Letter", "url":"https://raw.githubusercontent.com/Koolson/Qure/IconSet/BosLife_Letter.png"},
{"name":"Bot", "url":"https://raw.githubusercontent.com/Koolson/Qure/IconSet/Bot.png"},
{"name":"Bypass", "url":"https://raw.githubusercontent.com/Koolson/Qure/IconSet/Bypass.png"},
{"name":"CA", "url":"https://raw.githubusercontent.com/Koolson/Qure/IconSet/CA.png"},
{"name":"CCCAT", "url":"https://raw.githubusercontent.com/Koolson/Qure/IconSet/CCCAT.png"},
{"name":"CCCAT_C", "url":"https://raw.githubusercontent.com/Koolson/Qure/IconSet/CCCAT_C.png"},
{"name":"CEN", "url":"https://raw.githubusercontent.com/Koolson/Qure/IconSet/CEN.png"},
{"name":"CHT", "url":"https://raw.githubusercontent.com/Koolson/Qure/IconSet/CHT.png"},
{"name":"CMI", "url":"https://raw.githubusercontent.com/Koolson/Qure/IconSet/CMI.png"},
{"name":"CN", "url":"https://raw.githubusercontent.com/Koolson/Qure/IconSet/CN.png"},
{"name":"CN2", "url":"https://raw.githubusercontent.com/Koolson/Qure/IconSet/CN2.png"},
{"name":"CN2_GIA", "url":"https://raw.githubusercontent.com/Koolson/Qure/IconSet/CN2_GIA.png"},
{"name":"CN2_GT", "url":"https://raw.githubusercontent.com/Koolson/Qure/IconSet/CN2_GT.png"},
{"name":"CONAIR", "url":"https://raw.githubusercontent.com/Koolson/Qure/IconSet/CONAIR.png"},
{"name":"CTM", "url":"https://raw.githubusercontent.com/Koolson/Qure/IconSet/CTM.png"},
{"name":"Canada", "url":"https://raw.githubusercontent.com/Koolson/Qure/IconSet/Canada.png"},
{"name":"Cat", "url":"https://raw.githubusercontent.com/Koolson/Qure/IconSet/Cat.png"},
{"name":"Catnet", "url":"https://raw.githubusercontent.com/Koolson/Qure/IconSet/Catnet.png"},
{"name":"Cellular", "url":"https://raw.githubusercontent.com/Koolson/Qure/IconSet/Cellular.png"},
{"name":"China", "url":"https://raw.githubusercontent.com/Koolson/Qure/IconSet/China.png"},
{"name":"China_Map", "url":"https://raw.githubusercontent.com/Koolson/Qure/IconSet/China_Map.png"},
{"name":"China_Telecom", "url":"https://raw.githubusercontent.com/Koolson/Qure/IconSet/China_Telecom.png"},
{"name":"China_Unicom", "url":"https://raw.githubusercontent.com/Koolson/Qure/IconSet/China_Unicom.png"},
{"name":"Cloudflare", "url":"https://raw.githubusercontent.com/Koolson/Qure/IconSet/Cloudflare.png"},
{"name":"CrossWall", "url":"https://raw.githubusercontent.com/Koolson/Qure/IconSet/CrossWall.png"},
{"name":"Cydia", "url":"https://raw.githubusercontent.com/Koolson/Qure/IconSet/Cydia.png"},
{"name":"DAZN", "url":"https://raw.githubusercontent.com/Koolson/Qure/IconSet/DAZN.png"},
{"name":"DE", "url":"https://raw.githubusercontent.com/Koolson/Qure/IconSet/DE.png"},
{"name":"DMIT", "url":"https://raw.githubusercontent.com/Koolson/Qure/IconSet/DMIT.png"},
{"name":"Daily", "url":"https://raw.githubusercontent.com/Koolson/Qure/IconSet/Daily.png"},
{"name":"Dinosaur", "url":"https://raw.githubusercontent.com/Koolson/Qure/IconSet/Dinosaur.png"},
{"name":"Direct", "url":"https://raw.githubusercontent.com/Koolson/Qure/IconSet/Direct.png"},
{"name":"Disney+", "url":"https://raw.githubusercontent.com/Koolson/Qure/IconSet/Disney+.png"},
{"name":"Dler", "url":"https://raw.githubusercontent.com/Koolson/Qure/IconSet/Dler.png"},
{"name":"Domestic", "url":"https://raw.githubusercontent.com/Koolson/Qure/IconSet/Domestic.png"},
{"name":"DomesticMedia", "url":"https://raw.githubusercontent.com/Koolson/Qure/IconSet/DomesticMedia.png"},
{"name":"Download", "url":"https://raw.githubusercontent.com/Koolson/Qure/IconSet/Download.png"},
{"name":"Drill", "url":"https://raw.githubusercontent.com/Koolson/Qure/IconSet/Drill.png"},
{"name":"ESPN+", "url":"https://raw.githubusercontent.com/Koolson/Qure/IconSet/ESPN+.png"},
{"name":"EU", "url":"https://raw.githubusercontent.com/Koolson/Qure/IconSet/EU.png"},
{"name":"Emby", "url":"https://raw.githubusercontent.com/Koolson/Qure/IconSet/Emby.png"},
{"name":"European_Union", "url":"https://raw.githubusercontent.com/Koolson/Qure/IconSet/European_Union.png"},
{"name":"FI", "url":"https://raw.githubusercontent.com/Koolson/Qure/IconSet/FI.png"},
{"name":"FOX", "url":"https://raw.githubusercontent.com/Koolson/Qure/IconSet/FOX.png"},
{"name":"Facebook", "url":"https://raw.githubusercontent.com/Koolson/Qure/IconSet/Facebook.png"},
{"name":"Filter", "url":"https://raw.githubusercontent.com/Koolson/Qure/IconSet/Filter.png"},
{"name":"Final", "url":"https://raw.githubusercontent.com/Koolson/Qure/IconSet/Final.png"},
{"name":"Find_My", "url":"https://raw.githubusercontent.com/Koolson/Qure/IconSet/Find_My.png"},
{"name":"Flamingo", "url":"https://raw.githubusercontent.com/Koolson/Qure/IconSet/Flamingo.png"},
{"name":"ForeignMedia", "url":"https://raw.githubusercontent.com/Koolson/Qure/IconSet/ForeignMedia.png"},
{"name":"Frog", "url":"https://raw.githubusercontent.com/Koolson/Qure/IconSet/Frog.png"},
{"name":"G-Core_Labs", "url":"https://raw.githubusercontent.com/Koolson/Qure/IconSet/G-Core_Labs.png"},
{"name":"GCP", "url":"https://raw.githubusercontent.com/Koolson/Qure/IconSet/GCP.png"},
{"name":"GIA", "url":"https://raw.githubusercontent.com/Koolson/Qure/IconSet/GIA.png"},
{"name":"GLaDOS", "url":"https://raw.githubusercontent.com/Koolson/Qure/IconSet/GLaDOS.png"},
{"name":"GT", "url":"https://raw.githubusercontent.com/Koolson/Qure/IconSet/GT.png"},
{"name":"Game", "url":"https://raw.githubusercontent.com/Koolson/Qure/IconSet/Game.png"},
{"name":"Germany", "url":"https://raw.githubusercontent.com/Koolson/Qure/IconSet/Germany.png"},
{"name":"Global", "url":"https://raw.githubusercontent.com/Koolson/Qure/IconSet/Global.png"},
{"name":"GlobalMedia", "url":"https://raw.githubusercontent.com/Koolson/Qure/IconSet/GlobalMedia.png"},
{"name":"Google", "url":"https://raw.githubusercontent.com/Koolson/Qure/IconSet/Google.png"},
{"name":"Google_Drive", "url":"https://raw.githubusercontent.com/Koolson/Qure/IconSet/Google_Drive.png"},
{"name":"Google_Opinion_Rewards", "url":"https://raw.githubusercontent.com/Koolson/Qure/IconSet/Google_Opinion_Rewards.png"},
{"name":"Google_Search", "url":"https://raw.githubusercontent.com/Koolson/Qure/IconSet/Google_Search.png"},
{"name":"GuGuEX", "url":"https://raw.githubusercontent.com/Koolson/Qure/IconSet/GuGuEX.png"},
{"name":"GuGuEX_Letter", "url":"https://raw.githubusercontent.com/Koolson/Qure/IconSet/GuGuEX_Letter.png"},
{"name":"HBO", "url":"https://raw.githubusercontent.com/Koolson/Qure/IconSet/HBO.png"},
{"name":"HBO_Max", "url":"https://raw.githubusercontent.com/Koolson/Qure/IconSet/HBO_Max.png"},
{"name":"HGC", "url":"https://raw.githubusercontent.com/Koolson/Qure/IconSet/HGC.png"},
{"name":"HK", "url":"https://raw.githubusercontent.com/Koolson/Qure/IconSet/HK.png"},
{"name":"HKBN", "url":"https://raw.githubusercontent.com/Koolson/Qure/IconSet/HKBN.png"},
{"name":"HKMTMedia", "url":"https://raw.githubusercontent.com/Koolson/Qure/IconSet/HKMTMedia.png"},
{"name":"HKT", "url":"https://raw.githubusercontent.com/Koolson/Qure/IconSet/HKT.png"},
{"name":"Heart", "url":"https://raw.githubusercontent.com/Koolson/Qure/IconSet/Heart.png"},
{"name":"Heureka", "url":"https://raw.githubusercontent.com/Koolson/Qure/IconSet/Heureka.png"},
{"name":"HiNet", "url":"https://raw.githubusercontent.com/Koolson/Qure/IconSet/HiNet.png"},
{"name":"Hijacking", "url":"https://raw.githubusercontent.com/Koolson/Qure/IconSet/Hijacking.png"},
{"name":"Hong_Kong", "url":"https://raw.githubusercontent.com/Koolson/Qure/IconSet/Hong_Kong.png"},
{"name":"Hulu", "url":"https://raw.githubusercontent.com/Koolson/Qure/IconSet/Hulu.png"},
{"name":"IEPL", "url":"https://raw.githubusercontent.com/Koolson/Qure/IconSet/IEPL.png"},
{"name":"IIJ", "url":"https://raw.githubusercontent.com/Koolson/Qure/IconSet/IIJ.png"},
{"name":"IN", "url":"https://raw.githubusercontent.com/Koolson/Qure/IconSet/IN.png"},
{"name":"IPLC", "url":"https://raw.githubusercontent.com/Koolson/Qure/IconSet/IPLC.png"},
{"name":"ITV_Hub", "url":"https://raw.githubusercontent.com/Koolson/Qure/IconSet/ITV_Hub.png"},
{"name":"Ingress", "url":"https://raw.githubusercontent.com/Koolson/Qure/IconSet/Ingress.png"},
{"name":"Instagram", "url":"https://raw.githubusercontent.com/Koolson/Qure/IconSet/Instagram.png"},
{"name":"JIYOU", "url":"https://raw.githubusercontent.com/Koolson/Qure/IconSet/JIYOU.png"},
{"name":"JOOX", "url":"https://raw.githubusercontent.com/Koolson/Qure/IconSet/JOOX.png"},
{"name":"JOOX_Letter", "url":"https://raw.githubusercontent.com/Koolson/Qure/IconSet/JOOX_Letter.png"},
{"name":"JP", "url":"https://raw.githubusercontent.com/Koolson/Qure/IconSet/JP.png"},
{"name":"Japan", "url":"https://raw.githubusercontent.com/Koolson/Qure/IconSet/Japan.png"},
{"name":"KKBOX", "url":"https://raw.githubusercontent.com/Koolson/Qure/IconSet/KKBOX.png"},
{"name":"KKTV", "url":"https://raw.githubusercontent.com/Koolson/Qure/IconSet/KKTV.png"},
{"name":"KR", "url":"https://raw.githubusercontent.com/Koolson/Qure/IconSet/KR.png"},
{"name":"KT", "url":"https://raw.githubusercontent.com/Koolson/Qure/IconSet/KT.png"},
{"name":"Korea", "url":"https://raw.githubusercontent.com/Koolson/Qure/IconSet/Korea.png"},
{"name":"LOL", "url":"https://raw.githubusercontent.com/Koolson/Qure/IconSet/LOL.png"},
{"name":"Lab", "url":"https://raw.githubusercontent.com/Koolson/Qure/IconSet/Lab.png"},
{"name":"Lambda", "url":"https://raw.githubusercontent.com/Koolson/Qure/IconSet/Lambda.png"},
{"name":"League_of_Legends", "url":"https://raw.githubusercontent.com/Koolson/Qure/IconSet/League_of_Legends.png"},
{"name":"LiTV", "url":"https://raw.githubusercontent.com/Koolson/Qure/IconSet/LiTV.png"},
{"name":"LineTV", "url":"https://raw.githubusercontent.com/Koolson/Qure/IconSet/LineTV.png"},
{"name":"LineTV_Letter", "url":"https://raw.githubusercontent.com/Koolson/Qure/IconSet/LineTV_Letter.png"},
{"name":"Lock", "url":"https://raw.githubusercontent.com/Koolson/Qure/IconSet/Lock.png"},
{"name":"Loop", "url":"https://raw.githubusercontent.com/Koolson/Qure/IconSet/Loop.png"},
{"name":"Luffy", "url":"https://raw.githubusercontent.com/Koolson/Qure/IconSet/Luffy.png"},
{"name":"MAYING", "url":"https://raw.githubusercontent.com/Koolson/Qure/IconSet/MAYING.png"},
{"name":"MO", "url":"https://raw.githubusercontent.com/Koolson/Qure/IconSet/MO.png"},
{"name":"MY", "url":"https://raw.githubusercontent.com/Koolson/Qure/IconSet/MY.png"},
{"name":"Macao", "url":"https://raw.githubusercontent.com/Koolson/Qure/IconSet/Macao.png"},
{"name":"Magic", "url":"https://raw.githubusercontent.com/Koolson/Qure/IconSet/Magic.png"},
{"name":"Mail", "url":"https://raw.githubusercontent.com/Koolson/Qure/IconSet/Mail.png"},
{"name":"Malaysia", "url":"https://raw.githubusercontent.com/Koolson/Qure/IconSet/Malaysia.png"},
{"name":"Media", "url":"https://raw.githubusercontent.com/Koolson/Qure/IconSet/Media.png"},
{"name":"Microsoft", "url":"https://raw.githubusercontent.com/Koolson/Qure/IconSet/Microsoft.png"},
{"name":"Mouse", "url":"https://raw.githubusercontent.com/Koolson/Qure/IconSet/Mouse.png"},
{"name":"Music", "url":"https://raw.githubusercontent.com/Koolson/Qure/IconSet/Music.png"},
{"name":"Music_Enhance", "url":"https://raw.githubusercontent.com/Koolson/Qure/IconSet/Music_Enhance.png"},
{"name":"My5", "url":"https://raw.githubusercontent.com/Koolson/Qure/IconSet/My5.png"},
{"name":"N3RO", "url":"https://raw.githubusercontent.com/Koolson/Qure/IconSet/N3RO.png"},
{"name":"NBC", "url":"https://raw.githubusercontent.com/Koolson/Qure/IconSet/NBC.png"},
{"name":"NTT", "url":"https://raw.githubusercontent.com/Koolson/Qure/IconSet/NTT.png"},
{"name":"Netease_Music", "url":"https://raw.githubusercontent.com/Koolson/Qure/IconSet/Netease_Music.png"},
{"name":"Netease_Music_Unlock", "url":"https://raw.githubusercontent.com/Koolson/Qure/IconSet/Netease_Music_Unlock.png"},
{"name":"Netflix", "url":"https://raw.githubusercontent.com/Koolson/Qure/IconSet/Netflix.png"},
{"name":"Netflix_Letter", "url":"https://raw.githubusercontent.com/Koolson/Qure/IconSet/Netflix_Letter.png"},
{"name":"Nexitally", "url":"https://raw.githubusercontent.com/Koolson/Qure/IconSet/Nexitally.png"},
{"name":"Nfcloud", "url":"https://raw.githubusercontent.com/Koolson/Qure/IconSet/Nfcloud.png"},
{"name":"Notion", "url":"https://raw.githubusercontent.com/Koolson/Qure/IconSet/Notion.png"},
{"name":"Null_Nation", "url":"https://raw.githubusercontent.com/Koolson/Qure/IconSet/Null_Nation.png"},
{"name":"NyanCat", "url":"https://raw.githubusercontent.com/Koolson/Qure/IconSet/NyanCat.png"},
{"name":"OneDrive", "url":"https://raw.githubusercontent.com/Koolson/Qure/IconSet/OneDrive.png"},
{"name":"Oracle", "url":"https://raw.githubusercontent.com/Koolson/Qure/IconSet/Oracle.png"},
{"name":"Ox", "url":"https://raw.githubusercontent.com/Koolson/Qure/IconSet/Ox.png"},
{"name":"PBS", "url":"https://raw.githubusercontent.com/Koolson/Qure/IconSet/PBS.png"},
{"name":"PCCW", "url":"https://raw.githubusercontent.com/Koolson/Qure/IconSet/PCCW.png"},
{"name":"PH", "url":"https://raw.githubusercontent.com/Koolson/Qure/IconSet/PH.png"},
{"name":"Panda", "url":"https://raw.githubusercontent.com/Koolson/Qure/IconSet/Panda.png"},
{"name":"Pandora", "url":"https://raw.githubusercontent.com/Koolson/Qure/IconSet/Pandora.png"},
{"name":"PayPal", "url":"https://raw.githubusercontent.com/Koolson/Qure/IconSet/PayPal.png"},
{"name":"Peacock", "url":"https://raw.githubusercontent.com/Koolson/Qure/IconSet/Peacock.png"},
{"name":"Peacock_Letter", "url":"https://raw.githubusercontent.com/Koolson/Qure/IconSet/Peacock_Letter.png"},
{"name":"Peacock_P", "url":"https://raw.githubusercontent.com/Koolson/Qure/IconSet/Peacock_P.png"},
{"name":"Philippines", "url":"https://raw.githubusercontent.com/Koolson/Qure/IconSet/Philippines.png"},
{"name":"Pig", "url":"https://raw.githubusercontent.com/Koolson/Qure/IconSet/Pig.png"},
{"name":"Pornhub", "url":"https://raw.githubusercontent.com/Koolson/Qure/IconSet/Pornhub.png"},
{"name":"PostBox", "url":"https://raw.githubusercontent.com/Koolson/Qure/IconSet/PostBox.png"},
{"name":"PostBox_Alt", "url":"https://raw.githubusercontent.com/Koolson/Qure/IconSet/PostBox_Alt.png"},
{"name":"Prime_Video", "url":"https://raw.githubusercontent.com/Koolson/Qure/IconSet/Prime_Video.png"},
{"name":"Proxy", "url":"https://raw.githubusercontent.com/Koolson/Qure/IconSet/Proxy.png"},
{"name":"Puzzle", "url":"https://raw.githubusercontent.com/Koolson/Qure/IconSet/Puzzle.png"},
{"name":"QQ", "url":"https://raw.githubusercontent.com/Koolson/Qure/IconSet/QQ.png"},
{"name":"Quantumult_X", "url":"https://raw.githubusercontent.com/Koolson/Qure/IconSet/Quantumult_X.png"},
{"name":"Qure", "url":"https://raw.githubusercontent.com/Koolson/Qure/IconSet/Qure.png"},
{"name":"RU", "url":"https://raw.githubusercontent.com/Koolson/Qure/IconSet/RU.png"},
{"name":"Reject", "url":"https://raw.githubusercontent.com/Koolson/Qure/IconSet/Reject.png"},
{"name":"Rocket", "url":"https://raw.githubusercontent.com/Koolson/Qure/IconSet/Rocket.png"},
{"name":"Round_Robin", "url":"https://raw.githubusercontent.com/Koolson/Qure/IconSet/Round_Robin.png"},
{"name":"Round_Robin_Alt", "url":"https://raw.githubusercontent.com/Koolson/Qure/IconSet/Round_Robin_Alt.png"},
{"name":"Russia", "url":"https://raw.githubusercontent.com/Koolson/Qure/IconSet/Russia.png"},
{"name":"SG", "url":"https://raw.githubusercontent.com/Koolson/Qure/IconSet/SG.png"},
{"name":"SK", "url":"https://raw.githubusercontent.com/Koolson/Qure/IconSet/SK.png"},
{"name":"SS", "url":"https://raw.githubusercontent.com/Koolson/Qure/IconSet/SS.png"},
{"name":"SSID", "url":"https://raw.githubusercontent.com/Koolson/Qure/IconSet/SSID.png"},
{"name":"SSID_Alt", "url":"https://raw.githubusercontent.com/Koolson/Qure/IconSet/SSID_Alt.png"},
{"name":"SSL", "url":"https://raw.githubusercontent.com/Koolson/Qure/IconSet/SSL.png"},
{"name":"SSR", "url":"https://raw.githubusercontent.com/Koolson/Qure/IconSet/SSR.png"},
{"name":"SSR_Letter", "url":"https://raw.githubusercontent.com/Koolson/Qure/IconSet/SSR_Letter.png"},
{"name":"SS_Letter", "url":"https://raw.githubusercontent.com/Koolson/Qure/IconSet/SS_Letter.png"},
{"name":"Server", "url":"https://raw.githubusercontent.com/Koolson/Qure/IconSet/Server.png"},
{"name":"Singapore", "url":"https://raw.githubusercontent.com/Koolson/Qure/IconSet/Singapore.png"},
{"name":"Siri", "url":"https://raw.githubusercontent.com/Koolson/Qure/IconSet/Siri.png"},
{"name":"Sling_TV", "url":"https://raw.githubusercontent.com/Koolson/Qure/IconSet/Sling_TV.png"},
{"name":"SoftBank", "url":"https://raw.githubusercontent.com/Koolson/Qure/IconSet/SoftBank.png"},
{"name":"SoftBank_Letter", "url":"https://raw.githubusercontent.com/Koolson/Qure/IconSet/SoftBank_Letter.png"},
{"name":"Spark", "url":"https://raw.githubusercontent.com/Koolson/Qure/IconSet/Spark.png"},
{"name":"Speedtest", "url":"https://raw.githubusercontent.com/Koolson/Qure/IconSet/Speedtest.png"},
{"name":"Spotify", "url":"https://raw.githubusercontent.com/Koolson/Qure/IconSet/Spotify.png"},
{"name":"Stack", "url":"https://raw.githubusercontent.com/Koolson/Qure/IconSet/Stack.png"},
{"name":"Star", "url":"https://raw.githubusercontent.com/Koolson/Qure/IconSet/Star.png"},
{"name":"Static", "url":"https://raw.githubusercontent.com/Koolson/Qure/IconSet/Static.png"},
{"name":"Static_Alt", "url":"https://raw.githubusercontent.com/Koolson/Qure/IconSet/Static_Alt.png"},
{"name":"Streaming", "url":"https://raw.githubusercontent.com/Koolson/Qure/IconSet/Streaming.png"},
{"name":"StreamingCN", "url":"https://raw.githubusercontent.com/Koolson/Qure/IconSet/StreamingCN.png"},
{"name":"StreamingSE", "url":"https://raw.githubusercontent.com/Koolson/Qure/IconSet/StreamingSE.png"},
{"name":"TAG", "url":"https://raw.githubusercontent.com/Koolson/Qure/IconSet/TAG.png"},
{"name":"TH", "url":"https://raw.githubusercontent.com/Koolson/Qure/IconSet/TH.png"},
{"name":"TIDAL", "url":"https://raw.githubusercontent.com/Koolson/Qure/IconSet/TIDAL.png"},
{"name":"TR", "url":"https://raw.githubusercontent.com/Koolson/Qure/IconSet/TR.png"},
{"name":"TVB", "url":"https://raw.githubusercontent.com/Koolson/Qure/IconSet/TVB.png"},
{"name":"TW", "url":"https://raw.githubusercontent.com/Koolson/Qure/IconSet/TW.png"},
{"name":"Taiwan", "url":"https://raw.githubusercontent.com/Koolson/Qure/IconSet/Taiwan.png"},
{"name":"Taobao", "url":"https://raw.githubusercontent.com/Koolson/Qure/IconSet/Taobao.png"},
{"name":"Telegram", "url":"https://raw.githubusercontent.com/Koolson/Qure/IconSet/Telegram.png"},
{"name":"Telegram_X", "url":"https://raw.githubusercontent.com/Koolson/Qure/IconSet/Telegram_X.png"},
{"name":"Tencent_Cloud", "url":"https://raw.githubusercontent.com/Koolson/Qure/IconSet/Tencent_Cloud.png"},
{"name":"TestFlight", "url":"https://raw.githubusercontent.com/Koolson/Qure/IconSet/TestFlight.png"},
{"name":"Thailand", "url":"https://raw.githubusercontent.com/Koolson/Qure/IconSet/Thailand.png"},
{"name":"TikTok", "url":"https://raw.githubusercontent.com/Koolson/Qure/IconSet/TikTok.png"},
{"name":"Trojan", "url":"https://raw.githubusercontent.com/Koolson/Qure/IconSet/Trojan.png"},
{"name":"Trojan_Letter", "url":"https://raw.githubusercontent.com/Koolson/Qure/IconSet/Trojan_Letter.png"},
{"name":"Turkey", "url":"https://raw.githubusercontent.com/Koolson/Qure/IconSet/Turkey.png"},
{"name":"Twitch", "url":"https://raw.githubusercontent.com/Koolson/Qure/IconSet/Twitch.png"},
{"name":"Twitter", "url":"https://raw.githubusercontent.com/Koolson/Qure/IconSet/Twitter.png"},
{"name":"UK", "url":"https://raw.githubusercontent.com/Koolson/Qure/IconSet/UK.png"},
{"name":"ULB", "url":"https://raw.githubusercontent.com/Koolson/Qure/IconSet/ULB.png"},
{"name":"ULB_Alt", "url":"https://raw.githubusercontent.com/Koolson/Qure/IconSet/ULB_Alt.png"},
{"name":"UN", "url":"https://raw.githubusercontent.com/Koolson/Qure/IconSet/UN.png"},
{"name":"US", "url":"https://raw.githubusercontent.com/Koolson/Qure/IconSet/US.png"},
{"name":"United_Kingdom", "url":"https://raw.githubusercontent.com/Koolson/Qure/IconSet/United_Kingdom.png"},
{"name":"United_Nations", "url":"https://raw.githubusercontent.com/Koolson/Qure/IconSet/United_Nations.png"},
{"name":"United_States", "url":"https://raw.githubusercontent.com/Koolson/Qure/IconSet/United_States.png"},
{"name":"United_States_Map", "url":"https://raw.githubusercontent.com/Koolson/Qure/IconSet/United_States_Map.png"},
{"name":"Unlock", "url":"https://raw.githubusercontent.com/Koolson/Qure/IconSet/Unlock.png"},
{"name":"VIP", "url":"https://raw.githubusercontent.com/Koolson/Qure/IconSet/VIP.png"},
{"name":"VMess", "url":"https://raw.githubusercontent.com/Koolson/Qure/IconSet/VMess.png"},
{"name":"VMess_Letter", "url":"https://raw.githubusercontent.com/Koolson/Qure/IconSet/VMess_Letter.png"},
{"name":"Vimeo", "url":"https://raw.githubusercontent.com/Koolson/Qure/IconSet/Vimeo.png"},
{"name":"VirMach", "url":"https://raw.githubusercontent.com/Koolson/Qure/IconSet/VirMach.png"},
{"name":"VirMach_Letter", "url":"https://raw.githubusercontent.com/Koolson/Qure/IconSet/VirMach_Letter.png"},
{"name":"ViuTV", "url":"https://raw.githubusercontent.com/Koolson/Qure/IconSet/ViuTV.png"},
{"name":"WTT", "url":"https://raw.githubusercontent.com/Koolson/Qure/IconSet/WTT.png"},
{"name":"Want_Want", "url":"https://raw.githubusercontent.com/Koolson/Qure/IconSet/Want_Want.png"},
{"name":"Want_Want_Letter", "url":"https://raw.githubusercontent.com/Koolson/Qure/IconSet/Want_Want_Letter.png"},
{"name":"WeChat", "url":"https://raw.githubusercontent.com/Koolson/Qure/IconSet/WeChat.png"},
{"name":"WeTV", "url":"https://raw.githubusercontent.com/Koolson/Qure/IconSet/WeTV.png"},
{"name":"WeTV_Letter", "url":"https://raw.githubusercontent.com/Koolson/Qure/IconSet/WeTV_Letter.png"},
{"name":"WiFi", "url":"https://raw.githubusercontent.com/Koolson/Qure/IconSet/WiFi.png"},
{"name":"Windows", "url":"https://raw.githubusercontent.com/Koolson/Qure/IconSet/Windows.png"},
{"name":"YTOO", "url":"https://raw.githubusercontent.com/Koolson/Qure/IconSet/YTOO.png"},
{"name":"YTOO_Letter", "url":"https://raw.githubusercontent.com/Koolson/Qure/IconSet/YTOO_Letter.png"},
{"name":"Yahoo", "url":"https://raw.githubusercontent.com/Koolson/Qure/IconSet/Yahoo.png"},
{"name":"Yahoo_Letter", "url":"https://raw.githubusercontent.com/Koolson/Qure/IconSet/Yahoo_Letter.png"},
{"name":"YoYu", "url":"https://raw.githubusercontent.com/Koolson/Qure/IconSet/YoYu.png"},
{"name":"YoYu_Letter", "url":"https://raw.githubusercontent.com/Koolson/Qure/IconSet/YoYu_Letter.png"},
{"name":"YouTube", "url":"https://raw.githubusercontent.com/Koolson/Qure/IconSet/YouTube.png"},
{"name":"YouTube_Letter", "url":"https://raw.githubusercontent.com/Koolson/Qure/IconSet/YouTube_Letter.png"},
{"name":"YouTube_Music", "url":"https://raw.githubusercontent.com/Koolson/Qure/IconSet/YouTube_Music.png"},
{"name":"aaex", "url":"https://raw.githubusercontent.com/Koolson/Qure/IconSet/aaex.png"},
{"name":"bilibili", "url":"https://raw.githubusercontent.com/Koolson/Qure/IconSet/bilibili.png"},
{"name":"deezer", "url":"https://raw.githubusercontent.com/Koolson/Qure/IconSet/deezer.png"},
{"name":"deezer_Letter", "url":"https://raw.githubusercontent.com/Koolson/Qure/IconSet/deezer_Letter.png"},
{"name":"discovery+", "url":"https://raw.githubusercontent.com/Koolson/Qure/IconSet/discovery+.png"},
{"name":"encoreTVB", "url":"https://raw.githubusercontent.com/Koolson/Qure/IconSet/encoreTVB.png"},
{"name":"friDay", "url":"https://raw.githubusercontent.com/Koolson/Qure/IconSet/friDay.png"},
{"name":"fuboTV", "url":"https://raw.githubusercontent.com/Koolson/Qure/IconSet/fuboTV.png"},
{"name":"hitun", "url":"https://raw.githubusercontent.com/Koolson/Qure/IconSet/hitun.png"},
{"name":"iCloud", "url":"https://raw.githubusercontent.com/Koolson/Qure/IconSet/iCloud.png"},
{"name":"iQIYI&bilibili", "url":"https://raw.githubusercontent.com/Koolson/Qure/IconSet/iQIYI&bilibili.png"},
{"name":"iQIYI", "url":"https://raw.githubusercontent.com/Koolson/Qure/IconSet/iQIYI.png"},
{"name":"myTV_SUPER", "url":"https://raw.githubusercontent.com/Koolson/Qure/IconSet/myTV_SUPER.png"},
{"name":"niconico", "url":"https://raw.githubusercontent.com/Koolson/Qure/IconSet/niconico.png"},
{"name":"niconico_Letter", "url":"https://raw.githubusercontent.com/Koolson/Qure/IconSet/niconico_Letter.png"},
{"name":"rix", "url":"https://raw.githubusercontent.com/Koolson/Qure/IconSet/rix.png"},
{"name":"rixcloud", "url":"https://raw.githubusercontent.com/Koolson/Qure/IconSet/rixcloud.png"},
{"name":"ssrcloud", "url":"https://raw.githubusercontent.com/Koolson/Qure/IconSet/ssrcloud.png"},
{"name":"w8ves", "url":"https://raw.githubusercontent.com/Koolson/Qure/IconSet/w8ves.png"},
{"name":"w8ves_Letter", "url":"https://raw.githubusercontent.com/Koolson/Qure/IconSet/w8ves_Letter.png"},
{"name":"x0.1", "url":"https://raw.githubusercontent.com/Koolson/Qure/IconSet/x0.1.png"},
{"name":"x0.2", "url":"https://raw.githubusercontent.com/Koolson/Qure/IconSet/x0.2.png"},
{"name":"x0.3", "url":"https://raw.githubusercontent.com/Koolson/Qure/IconSet/x0.3.png"},
{"name":"x0.4", "url":"https://raw.githubusercontent.com/Koolson/Qure/IconSet/x0.4.png"},
{"name":"x0.5", "url":"https://raw.githubusercontent.com/Koolson/Qure/IconSet/x0.5.png"},
{"name":"x0.7", "url":"https://raw.githubusercontent.com/Koolson/Qure/IconSet/x0.7.png"},
{"name":"x0", "url":"https://raw.githubusercontent.com/Koolson/Qure/IconSet/x0.png"},
{"name":"x1.0", "url":"https://raw.githubusercontent.com/Koolson/Qure/IconSet/x1.0.png"},
{"name":"x1", "url":"https://raw.githubusercontent.com/Koolson/Qure/IconSet/x1.png"},
{"name":"x2.0", "url":"https://raw.githubusercontent.com/Koolson/Qure/IconSet/x2.0.png"},
{"name":"x2", "url":"https://raw.githubusercontent.com/Koolson/Qure/IconSet/x2.png"},
{"name":"x3.0", "url":"https://raw.githubusercontent.com/Koolson/Qure/IconSet/x3.0.png"},
{"name":"x3", "url":"https://raw.githubusercontent.com/Koolson/Qure/IconSet/x3.png"},
{"name":"x4.0", "url":"https://raw.githubusercontent.com/Koolson/Qure/IconSet/x4.0.png"},
{"name":"x5.0", "url":"https://raw.githubusercontent.com/Koolson/Qure/IconSet/x5.0.png"},
]}